filename,width,height,class,xmin,ymin,xmax,ymax
image (1).jpg,400,400,dog,30,13,377,365
image (10).jpg,400,400,dog,12,22,400,368
image (11).jpg,400,400,dog,14,30,370,374
image (12).jpg,400,400,dog,73,83,184,344
image (12).jpg,400,400,dog,198,49,331,399
image (13).jpg,400,400,dog,52,30,383,397
image (14).jpg,400,400,dog,53,95,215,349
image (14).jpg,400,400,dog,208,94,367,337
image (15).jpg,400,400,dog,31,9,387,397
image (16).jpg,400,400,dog,60,5,306,392
image (17).jpg,400,400,dog,102,30,312,379
image (18).jpg,400,400,dog,67,7,331,389
image (19).jpg,400,400,dog,13,9,381,398
image (2).jpg,400,400,dog,86,26,317,381
image (20).jpg,400,400,dog,31,5,384,397
image (21).jpg,400,400,dog,59,45,340,398
image (22).jpg,400,400,dog,64,52,360,388
image (23).jpg,400,400,dog,94,29,322,375
image (24).jpg,400,400,dog,60,30,312,391
image (25).jpg,400,400,dog,36,13,277,387
image (26).jpg,400,400,dog,49,2,350,385
image (27).jpg,400,400,dog,84,17,318,381
image (28).jpg,400,400,dog,79,59,345,364
image (29).jpg,400,400,dog,96,30,373,356
image (3).jpg,400,400,dog,92,44,337,337
image (30).jpg,400,400,dog,1,6,289,396
image (4).jpg,400,400,dog,91,250,161,379
image (4).jpg,400,400,dog,70,7,327,388
image (5).jpg,400,400,dog,19,9,384,389
image (6).jpg,400,400,dog,82,35,308,371
image (7).jpg,400,400,dog,99,35,345,393
image (8).jpg,400,400,dog,62,2,323,384
image (9).jpg,400,400,dog,45,10,364,390
